<mxfile host="app.diagrams.net" modified="2024-05-08T10:55:50.732Z" agent="Mozilla/5.0 (Windows NT 10.0; Win64; x64) AppleWebKit/537.36 (KHTML, like Gecko) Chrome/124.0.0.0 Safari/537.36 Edg/124.0.0.0" etag="Q24WvXl90DbPw1WNOfD5" version="24.2.5" type="gitlab">
  <diagram name="第 1 页" id="FKhs0DVX43w5ouV2iksL">
    <mxGraphModel dx="1002" dy="569" grid="1" gridSize="10" guides="1" tooltips="1" connect="1" arrows="1" fold="1" page="1" pageScale="1" pageWidth="827" pageHeight="1169" math="0" shadow="0">
      <root>
        <mxCell id="0" />
        <mxCell id="1" parent="0" />
        <mxCell id="RJwh2fDzSjNkM2PtVlyq-130" value="" style="group" vertex="1" connectable="0" parent="1">
          <mxGeometry x="99" y="80" width="801" height="530" as="geometry" />
        </mxCell>
        <mxCell id="RJwh2fDzSjNkM2PtVlyq-1" value="香港子行报文平台" style="rounded=0;whiteSpace=wrap;html=1;" vertex="1" parent="RJwh2fDzSjNkM2PtVlyq-130">
          <mxGeometry x="321" width="120" height="60" as="geometry" />
        </mxCell>
        <mxCell id="RJwh2fDzSjNkM2PtVlyq-2" value="业务管理" style="rounded=0;whiteSpace=wrap;html=1;" vertex="1" parent="RJwh2fDzSjNkM2PtVlyq-130">
          <mxGeometry x="69" y="120" width="120" height="60" as="geometry" />
        </mxCell>
        <mxCell id="RJwh2fDzSjNkM2PtVlyq-4" value="查询功能" style="rounded=0;whiteSpace=wrap;html=1;" vertex="1" parent="RJwh2fDzSjNkM2PtVlyq-130">
          <mxGeometry x="255" y="120" width="120" height="60" as="geometry" />
        </mxCell>
        <mxCell id="RJwh2fDzSjNkM2PtVlyq-5" value="共公功能" style="rounded=0;whiteSpace=wrap;html=1;" vertex="1" parent="RJwh2fDzSjNkM2PtVlyq-130">
          <mxGeometry x="411" y="120" width="120" height="60" as="geometry" />
        </mxCell>
        <mxCell id="RJwh2fDzSjNkM2PtVlyq-6" value="参数管理" style="rounded=0;whiteSpace=wrap;html=1;" vertex="1" parent="RJwh2fDzSjNkM2PtVlyq-130">
          <mxGeometry x="561" y="120" width="120" height="60" as="geometry" />
        </mxCell>
        <mxCell id="RJwh2fDzSjNkM2PtVlyq-7" value="机构管理" style="rounded=0;whiteSpace=wrap;html=1;" vertex="1" parent="RJwh2fDzSjNkM2PtVlyq-130">
          <mxGeometry x="641" y="240" width="20" height="100" as="geometry" />
        </mxCell>
        <mxCell id="RJwh2fDzSjNkM2PtVlyq-8" value="权限管理" style="rounded=0;whiteSpace=wrap;html=1;" vertex="1" parent="RJwh2fDzSjNkM2PtVlyq-130">
          <mxGeometry x="611" y="240" width="20" height="100" as="geometry" />
        </mxCell>
        <mxCell id="RJwh2fDzSjNkM2PtVlyq-9" value="基础数据" style="rounded=0;whiteSpace=wrap;html=1;" vertex="1" parent="RJwh2fDzSjNkM2PtVlyq-130">
          <mxGeometry x="581" y="240" width="20" height="110" as="geometry" />
        </mxCell>
        <mxCell id="RJwh2fDzSjNkM2PtVlyq-10" value="银行管理" style="rounded=0;whiteSpace=wrap;html=1;" vertex="1" parent="RJwh2fDzSjNkM2PtVlyq-130">
          <mxGeometry x="728" y="240" width="20" height="100" as="geometry" />
        </mxCell>
        <mxCell id="RJwh2fDzSjNkM2PtVlyq-14" value="全局监控管理" style="rounded=0;whiteSpace=wrap;html=1;" vertex="1" parent="RJwh2fDzSjNkM2PtVlyq-130">
          <mxGeometry x="441" y="240" width="20" height="120" as="geometry" />
        </mxCell>
        <mxCell id="RJwh2fDzSjNkM2PtVlyq-15" value="任务监控管理" style="rounded=0;whiteSpace=wrap;html=1;" vertex="1" parent="RJwh2fDzSjNkM2PtVlyq-130">
          <mxGeometry x="471" y="240" width="20" height="120" as="geometry" />
        </mxCell>
        <mxCell id="RJwh2fDzSjNkM2PtVlyq-16" value="报文查询" style="rounded=0;whiteSpace=wrap;html=1;" vertex="1" parent="RJwh2fDzSjNkM2PtVlyq-130">
          <mxGeometry x="251" y="240" width="20" height="120" as="geometry" />
        </mxCell>
        <mxCell id="RJwh2fDzSjNkM2PtVlyq-17" value="关键信息查询" style="rounded=0;whiteSpace=wrap;html=1;" vertex="1" parent="RJwh2fDzSjNkM2PtVlyq-130">
          <mxGeometry x="281" y="240" width="20" height="120" as="geometry" />
        </mxCell>
        <mxCell id="RJwh2fDzSjNkM2PtVlyq-18" value="核心业务查询" style="rounded=0;whiteSpace=wrap;html=1;" vertex="1" parent="RJwh2fDzSjNkM2PtVlyq-130">
          <mxGeometry x="311" y="240" width="20" height="120" as="geometry" />
        </mxCell>
        <mxCell id="RJwh2fDzSjNkM2PtVlyq-20" value="数字证书查询" style="rounded=0;whiteSpace=wrap;html=1;" vertex="1" parent="RJwh2fDzSjNkM2PtVlyq-130">
          <mxGeometry x="341" y="240" width="20" height="120" as="geometry" />
        </mxCell>
        <mxCell id="RJwh2fDzSjNkM2PtVlyq-23" value="报文管理" style="rounded=0;whiteSpace=wrap;html=1;" vertex="1" parent="RJwh2fDzSjNkM2PtVlyq-130">
          <mxGeometry x="29" y="240" width="20" height="120" as="geometry" />
        </mxCell>
        <mxCell id="RJwh2fDzSjNkM2PtVlyq-24" value="卷宗管理" style="rounded=0;whiteSpace=wrap;html=1;" vertex="1" parent="RJwh2fDzSjNkM2PtVlyq-130">
          <mxGeometry x="59" y="240" width="20" height="120" as="geometry" />
        </mxCell>
        <mxCell id="RJwh2fDzSjNkM2PtVlyq-26" value="清算交易" style="rounded=0;whiteSpace=wrap;html=1;" vertex="1" parent="RJwh2fDzSjNkM2PtVlyq-130">
          <mxGeometry x="89" y="240" width="20" height="120" as="geometry" />
        </mxCell>
        <mxCell id="RJwh2fDzSjNkM2PtVlyq-27" value="系统业务" style="rounded=0;whiteSpace=wrap;html=1;" vertex="1" parent="RJwh2fDzSjNkM2PtVlyq-130">
          <mxGeometry x="119" y="240" width="20" height="120" as="geometry" />
        </mxCell>
        <mxCell id="RJwh2fDzSjNkM2PtVlyq-28" value="&lt;p class=&quot;MsoNormal&quot;&gt;&lt;span style=&quot;mso-spacerun:&#39;yes&#39;;font-family:宋体;mso-bidi-font-family:&#39;Times New Roman&#39;;&lt;br/&gt;font-size:10.5000pt;mso-font-kerning:1.0000pt;&quot;&gt;清分规则&lt;/span&gt;&lt;/p&gt;" style="rounded=0;whiteSpace=wrap;html=1;" vertex="1" parent="RJwh2fDzSjNkM2PtVlyq-130">
          <mxGeometry x="149" y="240" width="20" height="120" as="geometry" />
        </mxCell>
        <mxCell id="RJwh2fDzSjNkM2PtVlyq-30" value="&lt;p class=&quot;MsoNormal&quot;&gt;&lt;span style=&quot;mso-spacerun:&#39;yes&#39;;font-family:宋体;mso-ascii-font-family:Calibri;&lt;br/&gt;mso-hansi-font-family:Calibri;mso-bidi-font-family:&#39;Times New Roman&#39;;font-size:10.5000pt;&lt;br/&gt;mso-font-kerning:1.0000pt;&quot;&gt;&lt;font face=&quot;Calibri&quot;&gt;GPI&lt;/font&gt;&lt;font face=&quot;宋体&quot;&gt;报文查询&lt;/font&gt;&lt;/span&gt;&lt;/p&gt;" style="rounded=0;whiteSpace=wrap;html=1;" vertex="1" parent="RJwh2fDzSjNkM2PtVlyq-130">
          <mxGeometry x="159" y="400" width="20" height="120" as="geometry" />
        </mxCell>
        <mxCell id="RJwh2fDzSjNkM2PtVlyq-31" value="&lt;p class=&quot;MsoNormal&quot;&gt;&lt;span style=&quot;mso-spacerun:&#39;yes&#39;;font-family:宋体;mso-bidi-font-family:&#39;Times New Roman&#39;;&lt;br/&gt;font-size:10.5000pt;mso-font-kerning:1.0000pt;&quot;&gt;发报查询&lt;/span&gt;&lt;/p&gt;" style="rounded=0;whiteSpace=wrap;html=1;" vertex="1" parent="RJwh2fDzSjNkM2PtVlyq-130">
          <mxGeometry x="189" y="400" width="20" height="120" as="geometry" />
        </mxCell>
        <mxCell id="RJwh2fDzSjNkM2PtVlyq-32" value="&lt;p class=&quot;MsoNormal&quot;&gt;&lt;span style=&quot;mso-spacerun:&#39;yes&#39;;font-family:宋体;mso-bidi-font-family:&#39;Times New Roman&#39;;&lt;br/&gt;font-size:10.5000pt;mso-font-kerning:1.0000pt;&quot;&gt;收报查询&lt;/span&gt;&lt;/p&gt;" style="rounded=0;whiteSpace=wrap;html=1;" vertex="1" parent="RJwh2fDzSjNkM2PtVlyq-130">
          <mxGeometry x="219" y="400" width="20" height="120" as="geometry" />
        </mxCell>
        <mxCell id="RJwh2fDzSjNkM2PtVlyq-33" value="&lt;p class=&quot;MsoNormal&quot;&gt;&lt;span style=&quot;mso-spacerun:&#39;yes&#39;;font-family:宋体;mso-bidi-font-family:&#39;Times New Roman&#39;;&lt;br/&gt;font-size:10.5000pt;mso-font-kerning:1.0000pt;&quot;&gt;ACK&lt;/span&gt;&lt;/p&gt;&lt;p class=&quot;MsoNormal&quot;&gt;&lt;span style=&quot;mso-spacerun:&#39;yes&#39;;font-family:宋体;mso-bidi-font-family:&#39;Times New Roman&#39;;&lt;br/&gt;font-size:10.5000pt;mso-font-kerning:1.0000pt;&quot;&gt;/&lt;/span&gt;&lt;/p&gt;&lt;p class=&quot;MsoNormal&quot;&gt;&lt;span style=&quot;mso-spacerun:&#39;yes&#39;;font-family:宋体;mso-bidi-font-family:&#39;Times New Roman&#39;;&lt;br/&gt;font-size:10.5000pt;mso-font-kerning:1.0000pt;&quot;&gt;NAK查询&lt;/span&gt;&lt;/p&gt;" style="rounded=0;whiteSpace=wrap;html=1;" vertex="1" parent="RJwh2fDzSjNkM2PtVlyq-130">
          <mxGeometry x="249" y="400" width="20" height="120" as="geometry" />
        </mxCell>
        <mxCell id="RJwh2fDzSjNkM2PtVlyq-34" value="&lt;p class=&quot;MsoNormal&quot;&gt;&lt;span style=&quot;mso-spacerun:&#39;yes&#39;;font-family:宋体;mso-bidi-font-family:&#39;Times New Roman&#39;;&lt;br/&gt;font-size:10.5000pt;mso-font-kerning:1.0000pt;&quot;&gt;格转报文查询&lt;/span&gt;&lt;/p&gt;" style="rounded=0;whiteSpace=wrap;html=1;" vertex="1" parent="RJwh2fDzSjNkM2PtVlyq-130">
          <mxGeometry x="279" y="400" width="20" height="120" as="geometry" />
        </mxCell>
        <mxCell id="RJwh2fDzSjNkM2PtVlyq-35" value="&lt;p class=&quot;MsoNormal&quot;&gt;&lt;span style=&quot;mso-spacerun:&#39;yes&#39;;font-family:宋体;mso-ascii-font-family:Calibri;&lt;br/&gt;mso-hansi-font-family:Calibri;mso-bidi-font-family:&#39;Times New Roman&#39;;font-size:10.5000pt;&lt;br/&gt;mso-font-kerning:1.0000pt;&quot;&gt;手工拟报&lt;/span&gt;&lt;/p&gt;" style="rounded=0;whiteSpace=wrap;html=1;" vertex="1" parent="RJwh2fDzSjNkM2PtVlyq-130">
          <mxGeometry y="400" width="20" height="120" as="geometry" />
        </mxCell>
        <mxCell id="RJwh2fDzSjNkM2PtVlyq-36" value="&lt;p class=&quot;MsoNormal&quot;&gt;&lt;span style=&quot;mso-spacerun:&#39;yes&#39;;font-family:宋体;mso-ascii-font-family:Calibri;&lt;br/&gt;mso-hansi-font-family:Calibri;mso-bidi-font-family:&#39;Times New Roman&#39;;font-size:10.5000pt;&lt;br/&gt;mso-font-kerning:1.0000pt;&quot;&gt;来报手工登记&lt;/span&gt;&lt;/p&gt;" style="rounded=0;whiteSpace=wrap;html=1;" vertex="1" parent="RJwh2fDzSjNkM2PtVlyq-130">
          <mxGeometry x="28" y="400" width="20" height="120" as="geometry" />
        </mxCell>
        <mxCell id="RJwh2fDzSjNkM2PtVlyq-37" value="&lt;p class=&quot;MsoNormal&quot;&gt;&lt;span style=&quot;mso-spacerun:&#39;yes&#39;;font-family:宋体;mso-ascii-font-family:Calibri;&lt;br/&gt;mso-hansi-font-family:Calibri;mso-bidi-font-family:&#39;Times New Roman&#39;;font-size:10.5000pt;&lt;br/&gt;mso-font-kerning:1.0000pt;&quot;&gt;任务列表&lt;/span&gt;&lt;/p&gt;" style="rounded=0;whiteSpace=wrap;html=1;" vertex="1" parent="RJwh2fDzSjNkM2PtVlyq-130">
          <mxGeometry x="411" y="240" width="20" height="120" as="geometry" />
        </mxCell>
        <mxCell id="RJwh2fDzSjNkM2PtVlyq-38" value="&lt;p class=&quot;MsoNormal&quot;&gt;&lt;span style=&quot;mso-spacerun:&#39;yes&#39;;font-family:宋体;mso-bidi-font-family:&#39;Times New Roman&#39;;&lt;br/&gt;font-size:10.5000pt;mso-font-kerning:1.0000pt;&quot;&gt;&lt;font face=&quot;宋体&quot;&gt;来&lt;/font&gt;&lt;font face=&quot;宋体&quot;&gt;/往报处理&lt;/font&gt;&lt;/span&gt;&lt;/p&gt;" style="rounded=0;whiteSpace=wrap;html=1;" vertex="1" parent="RJwh2fDzSjNkM2PtVlyq-130">
          <mxGeometry x="58" y="400" width="20" height="120" as="geometry" />
        </mxCell>
        <mxCell id="RJwh2fDzSjNkM2PtVlyq-39" value="&lt;p class=&quot;MsoNormal&quot;&gt;&lt;span style=&quot;mso-spacerun:&#39;yes&#39;;font-family:宋体;mso-ascii-font-family:Calibri;&lt;br/&gt;mso-hansi-font-family:Calibri;mso-bidi-font-family:&#39;Times New Roman&#39;;font-size:10.5000pt;&lt;br/&gt;mso-font-kerning:1.0000pt;&quot;&gt;首页&lt;/span&gt;&lt;/p&gt;" style="rounded=0;whiteSpace=wrap;html=1;" vertex="1" parent="RJwh2fDzSjNkM2PtVlyq-130">
          <mxGeometry x="501" y="240" width="20" height="120" as="geometry" />
        </mxCell>
        <mxCell id="RJwh2fDzSjNkM2PtVlyq-40" value="&lt;p class=&quot;MsoNormal&quot;&gt;&lt;span style=&quot;mso-spacerun:&#39;yes&#39;;font-family:宋体;mso-ascii-font-family:Calibri;&lt;br/&gt;mso-hansi-font-family:Calibri;mso-bidi-font-family:&#39;Times New Roman&#39;;font-size:10.5000pt;&lt;br/&gt;mso-font-kerning:1.0000pt;&quot;&gt;用户登录&lt;/span&gt;&lt;/p&gt;" style="rounded=0;whiteSpace=wrap;html=1;" vertex="1" parent="RJwh2fDzSjNkM2PtVlyq-130">
          <mxGeometry x="531" y="240" width="20" height="120" as="geometry" />
        </mxCell>
        <mxCell id="RJwh2fDzSjNkM2PtVlyq-42" value="&lt;p class=&quot;MsoNormal&quot;&gt;&lt;span style=&quot;mso-spacerun:&#39;yes&#39;;font-family:宋体;mso-bidi-font-family:&#39;Times New Roman&#39;;&lt;br/&gt;font-size:10.5000pt;mso-font-kerning:1.0000pt;&quot;&gt;节假日管理&lt;/span&gt;&lt;/p&gt;" style="rounded=0;whiteSpace=wrap;html=1;" vertex="1" parent="RJwh2fDzSjNkM2PtVlyq-130">
          <mxGeometry x="541" y="400" width="20" height="100" as="geometry" />
        </mxCell>
        <mxCell id="RJwh2fDzSjNkM2PtVlyq-43" value="&lt;p class=&quot;MsoNormal&quot;&gt;&lt;span style=&quot;mso-spacerun:&#39;yes&#39;;font-family:宋体;mso-bidi-font-family:&#39;Times New Roman&#39;;&lt;br/&gt;font-size:10.5000pt;mso-font-kerning:1.0000pt;&quot;&gt;通知公告管理&lt;/span&gt;&lt;/p&gt;" style="rounded=0;whiteSpace=wrap;html=1;" vertex="1" parent="RJwh2fDzSjNkM2PtVlyq-130">
          <mxGeometry x="571" y="400" width="20" height="100" as="geometry" />
        </mxCell>
        <mxCell id="RJwh2fDzSjNkM2PtVlyq-44" value="&lt;p class=&quot;MsoNormal&quot;&gt;&lt;span style=&quot;mso-spacerun:&#39;yes&#39;;font-family:宋体;mso-bidi-font-family:&#39;Times New Roman&#39;;&lt;br/&gt;font-size:10.5000pt;mso-font-kerning:1.0000pt;&quot;&gt;国家管理&lt;/span&gt;&lt;/p&gt;" style="rounded=0;whiteSpace=wrap;html=1;" vertex="1" parent="RJwh2fDzSjNkM2PtVlyq-130">
          <mxGeometry x="601" y="400" width="20" height="100" as="geometry" />
        </mxCell>
        <mxCell id="RJwh2fDzSjNkM2PtVlyq-45" value="&lt;p class=&quot;MsoNormal&quot;&gt;&lt;span style=&quot;mso-spacerun:&#39;yes&#39;;font-family:宋体;mso-bidi-font-family:&#39;Times New Roman&#39;;&lt;br/&gt;font-size:10.5000pt;mso-font-kerning:1.0000pt;&quot;&gt;币种管理&lt;/span&gt;&lt;/p&gt;" style="rounded=0;whiteSpace=wrap;html=1;" vertex="1" parent="RJwh2fDzSjNkM2PtVlyq-130">
          <mxGeometry x="631" y="400" width="20" height="100" as="geometry" />
        </mxCell>
        <mxCell id="RJwh2fDzSjNkM2PtVlyq-46" value="&lt;p class=&quot;MsoNormal&quot;&gt;&lt;span style=&quot;mso-spacerun:&#39;yes&#39;;font-family:宋体;mso-bidi-font-family:&#39;Times New Roman&#39;;&lt;br/&gt;font-size:10.5000pt;mso-font-kerning:1.0000pt;&quot;&gt;用户管理&lt;/span&gt;&lt;/p&gt;" style="rounded=0;whiteSpace=wrap;html=1;" vertex="1" parent="RJwh2fDzSjNkM2PtVlyq-130">
          <mxGeometry x="671" y="240" width="20" height="100" as="geometry" />
        </mxCell>
        <mxCell id="RJwh2fDzSjNkM2PtVlyq-47" value="&lt;p class=&quot;MsoNormal&quot;&gt;&lt;span style=&quot;mso-spacerun:&#39;yes&#39;;font-family:宋体;mso-bidi-font-family:&#39;Times New Roman&#39;;&lt;br/&gt;font-size:10.5000pt;mso-font-kerning:1.0000pt;&quot;&gt;角色管理&lt;/span&gt;&lt;/p&gt;" style="rounded=0;whiteSpace=wrap;html=1;" vertex="1" parent="RJwh2fDzSjNkM2PtVlyq-130">
          <mxGeometry x="701" y="240" width="20" height="100" as="geometry" />
        </mxCell>
        <mxCell id="RJwh2fDzSjNkM2PtVlyq-48" value="&lt;p class=&quot;MsoNormal&quot;&gt;&lt;span style=&quot;mso-spacerun:&#39;yes&#39;;font-family:宋体;mso-bidi-font-family:&#39;Times New Roman&#39;;&lt;br/&gt;font-size:10.5000pt;mso-font-kerning:1.0000pt;&quot;&gt;SWIFT&lt;/span&gt;&lt;/p&gt;&lt;p class=&quot;MsoNormal&quot;&gt;&lt;span style=&quot;mso-spacerun:&#39;yes&#39;;font-family:宋体;mso-bidi-font-family:&#39;Times New Roman&#39;;&lt;br/&gt;font-size:10.5000pt;mso-font-kerning:1.0000pt;&quot;&gt;银行信息&lt;/span&gt;&lt;/p&gt;" style="rounded=0;whiteSpace=wrap;html=1;" vertex="1" parent="RJwh2fDzSjNkM2PtVlyq-130">
          <mxGeometry x="671" y="400" width="30" height="100" as="geometry" />
        </mxCell>
        <mxCell id="RJwh2fDzSjNkM2PtVlyq-49" value="&lt;p class=&quot;MsoNormal&quot;&gt;&lt;span style=&quot;mso-spacerun:&#39;yes&#39;;font-family:宋体;mso-bidi-font-family:&#39;Times New Roman&#39;;&lt;br/&gt;font-size:10.5000pt;mso-font-kerning:1.0000pt;&quot;&gt;RTGS银行信息&lt;/span&gt;&lt;/p&gt;" style="rounded=0;whiteSpace=wrap;html=1;" vertex="1" parent="RJwh2fDzSjNkM2PtVlyq-130">
          <mxGeometry x="708" y="400" width="33" height="100" as="geometry" />
        </mxCell>
        <mxCell id="RJwh2fDzSjNkM2PtVlyq-50" value="&lt;p class=&quot;MsoNormal&quot;&gt;&lt;span style=&quot;mso-spacerun:&#39;yes&#39;;font-family:宋体;mso-bidi-font-family:&#39;Times New Roman&#39;;&lt;br/&gt;font-size:10.5000pt;mso-font-kerning:1.0000pt;&quot;&gt;代理行密押&lt;/span&gt;&lt;/p&gt;" style="rounded=0;whiteSpace=wrap;html=1;" vertex="1" parent="RJwh2fDzSjNkM2PtVlyq-130">
          <mxGeometry x="745" y="400" width="20" height="100" as="geometry" />
        </mxCell>
        <mxCell id="RJwh2fDzSjNkM2PtVlyq-51" value="&lt;p class=&quot;MsoNormal&quot;&gt;&lt;span style=&quot;mso-spacerun:&#39;yes&#39;;font-family:宋体;mso-bidi-font-family:&#39;Times New Roman&#39;;&lt;br/&gt;font-size:10.5000pt;mso-font-kerning:1.0000pt;&quot;&gt;RTGS密押&lt;/span&gt;&lt;/p&gt;" style="rounded=0;whiteSpace=wrap;html=1;" vertex="1" parent="RJwh2fDzSjNkM2PtVlyq-130">
          <mxGeometry x="771" y="400" width="30" height="100" as="geometry" />
        </mxCell>
        <mxCell id="RJwh2fDzSjNkM2PtVlyq-52" value="" style="endArrow=none;html=1;rounded=0;" edge="1" parent="RJwh2fDzSjNkM2PtVlyq-130">
          <mxGeometry width="50" height="50" relative="1" as="geometry">
            <mxPoint x="131" y="80" as="sourcePoint" />
            <mxPoint x="641" y="80" as="targetPoint" />
          </mxGeometry>
        </mxCell>
        <mxCell id="RJwh2fDzSjNkM2PtVlyq-55" value="" style="endArrow=none;html=1;rounded=0;entryX=0.5;entryY=0;entryDx=0;entryDy=0;" edge="1" parent="RJwh2fDzSjNkM2PtVlyq-130">
          <mxGeometry width="50" height="50" relative="1" as="geometry">
            <mxPoint x="130" y="80" as="sourcePoint" />
            <mxPoint x="130" y="120" as="targetPoint" />
          </mxGeometry>
        </mxCell>
        <mxCell id="RJwh2fDzSjNkM2PtVlyq-56" value="" style="endArrow=none;html=1;rounded=0;entryX=0.5;entryY=0;entryDx=0;entryDy=0;" edge="1" parent="RJwh2fDzSjNkM2PtVlyq-130">
          <mxGeometry width="50" height="50" relative="1" as="geometry">
            <mxPoint x="315" y="81" as="sourcePoint" />
            <mxPoint x="315" y="121" as="targetPoint" />
          </mxGeometry>
        </mxCell>
        <mxCell id="RJwh2fDzSjNkM2PtVlyq-57" value="" style="endArrow=none;html=1;rounded=0;entryX=0.5;entryY=0;entryDx=0;entryDy=0;" edge="1" parent="RJwh2fDzSjNkM2PtVlyq-130">
          <mxGeometry width="50" height="50" relative="1" as="geometry">
            <mxPoint x="470" y="81" as="sourcePoint" />
            <mxPoint x="470" y="121" as="targetPoint" />
          </mxGeometry>
        </mxCell>
        <mxCell id="RJwh2fDzSjNkM2PtVlyq-58" value="" style="endArrow=none;html=1;rounded=0;entryX=0.5;entryY=0;entryDx=0;entryDy=0;" edge="1" parent="RJwh2fDzSjNkM2PtVlyq-130">
          <mxGeometry width="50" height="50" relative="1" as="geometry">
            <mxPoint x="639" y="78" as="sourcePoint" />
            <mxPoint x="639" y="118" as="targetPoint" />
          </mxGeometry>
        </mxCell>
        <mxCell id="RJwh2fDzSjNkM2PtVlyq-59" value="" style="endArrow=none;html=1;rounded=0;" edge="1" parent="RJwh2fDzSjNkM2PtVlyq-130">
          <mxGeometry width="50" height="50" relative="1" as="geometry">
            <mxPoint x="40" y="211" as="sourcePoint" />
            <mxPoint x="161" y="211" as="targetPoint" />
          </mxGeometry>
        </mxCell>
        <mxCell id="RJwh2fDzSjNkM2PtVlyq-60" value="" style="endArrow=none;html=1;rounded=0;" edge="1" parent="RJwh2fDzSjNkM2PtVlyq-130">
          <mxGeometry width="50" height="50" relative="1" as="geometry">
            <mxPoint x="261" y="210" as="sourcePoint" />
            <mxPoint x="351" y="210" as="targetPoint" />
          </mxGeometry>
        </mxCell>
        <mxCell id="RJwh2fDzSjNkM2PtVlyq-61" value="" style="endArrow=none;html=1;rounded=0;" edge="1" parent="RJwh2fDzSjNkM2PtVlyq-130">
          <mxGeometry width="50" height="50" relative="1" as="geometry">
            <mxPoint x="421" y="210" as="sourcePoint" />
            <mxPoint x="541" y="210" as="targetPoint" />
          </mxGeometry>
        </mxCell>
        <mxCell id="RJwh2fDzSjNkM2PtVlyq-62" value="" style="endArrow=none;html=1;rounded=0;" edge="1" parent="RJwh2fDzSjNkM2PtVlyq-130">
          <mxGeometry width="50" height="50" relative="1" as="geometry">
            <mxPoint x="588" y="210" as="sourcePoint" />
            <mxPoint x="731" y="210" as="targetPoint" />
          </mxGeometry>
        </mxCell>
        <mxCell id="RJwh2fDzSjNkM2PtVlyq-63" value="" style="endArrow=none;html=1;rounded=0;entryX=0.5;entryY=0;entryDx=0;entryDy=0;" edge="1" parent="RJwh2fDzSjNkM2PtVlyq-130" target="RJwh2fDzSjNkM2PtVlyq-23">
          <mxGeometry width="50" height="50" relative="1" as="geometry">
            <mxPoint x="39" y="210" as="sourcePoint" />
            <mxPoint x="91" y="160" as="targetPoint" />
          </mxGeometry>
        </mxCell>
        <mxCell id="RJwh2fDzSjNkM2PtVlyq-64" value="" style="endArrow=none;html=1;rounded=0;entryX=0.5;entryY=0;entryDx=0;entryDy=0;" edge="1" parent="RJwh2fDzSjNkM2PtVlyq-130">
          <mxGeometry width="50" height="50" relative="1" as="geometry">
            <mxPoint x="68" y="210" as="sourcePoint" />
            <mxPoint x="68" y="240" as="targetPoint" />
          </mxGeometry>
        </mxCell>
        <mxCell id="RJwh2fDzSjNkM2PtVlyq-65" value="" style="endArrow=none;html=1;rounded=0;entryX=0.5;entryY=0;entryDx=0;entryDy=0;" edge="1" parent="RJwh2fDzSjNkM2PtVlyq-130">
          <mxGeometry width="50" height="50" relative="1" as="geometry">
            <mxPoint x="99" y="211" as="sourcePoint" />
            <mxPoint x="99" y="241" as="targetPoint" />
          </mxGeometry>
        </mxCell>
        <mxCell id="RJwh2fDzSjNkM2PtVlyq-66" value="" style="endArrow=none;html=1;rounded=0;entryX=0.5;entryY=0;entryDx=0;entryDy=0;" edge="1" parent="RJwh2fDzSjNkM2PtVlyq-130">
          <mxGeometry width="50" height="50" relative="1" as="geometry">
            <mxPoint x="130" y="211" as="sourcePoint" />
            <mxPoint x="130" y="241" as="targetPoint" />
          </mxGeometry>
        </mxCell>
        <mxCell id="RJwh2fDzSjNkM2PtVlyq-67" value="" style="endArrow=none;html=1;rounded=0;entryX=0.5;entryY=0;entryDx=0;entryDy=0;" edge="1" parent="RJwh2fDzSjNkM2PtVlyq-130">
          <mxGeometry width="50" height="50" relative="1" as="geometry">
            <mxPoint x="158" y="211" as="sourcePoint" />
            <mxPoint x="158" y="241" as="targetPoint" />
          </mxGeometry>
        </mxCell>
        <mxCell id="RJwh2fDzSjNkM2PtVlyq-69" value="" style="endArrow=none;html=1;rounded=0;entryX=0.5;entryY=0;entryDx=0;entryDy=0;" edge="1" parent="RJwh2fDzSjNkM2PtVlyq-130">
          <mxGeometry width="50" height="50" relative="1" as="geometry">
            <mxPoint x="262" y="210" as="sourcePoint" />
            <mxPoint x="262" y="240" as="targetPoint" />
          </mxGeometry>
        </mxCell>
        <mxCell id="RJwh2fDzSjNkM2PtVlyq-70" value="" style="endArrow=none;html=1;rounded=0;entryX=0.5;entryY=0;entryDx=0;entryDy=0;" edge="1" parent="RJwh2fDzSjNkM2PtVlyq-130">
          <mxGeometry width="50" height="50" relative="1" as="geometry">
            <mxPoint x="291" y="211" as="sourcePoint" />
            <mxPoint x="291" y="241" as="targetPoint" />
          </mxGeometry>
        </mxCell>
        <mxCell id="RJwh2fDzSjNkM2PtVlyq-71" value="" style="endArrow=none;html=1;rounded=0;entryX=0.5;entryY=0;entryDx=0;entryDy=0;" edge="1" parent="RJwh2fDzSjNkM2PtVlyq-130">
          <mxGeometry width="50" height="50" relative="1" as="geometry">
            <mxPoint x="321" y="210" as="sourcePoint" />
            <mxPoint x="321" y="240" as="targetPoint" />
          </mxGeometry>
        </mxCell>
        <mxCell id="RJwh2fDzSjNkM2PtVlyq-72" value="" style="endArrow=none;html=1;rounded=0;entryX=0.5;entryY=0;entryDx=0;entryDy=0;" edge="1" parent="RJwh2fDzSjNkM2PtVlyq-130">
          <mxGeometry width="50" height="50" relative="1" as="geometry">
            <mxPoint x="350" y="210" as="sourcePoint" />
            <mxPoint x="350" y="240" as="targetPoint" />
          </mxGeometry>
        </mxCell>
        <mxCell id="RJwh2fDzSjNkM2PtVlyq-74" value="" style="endArrow=none;html=1;rounded=0;entryX=0.5;entryY=0;entryDx=0;entryDy=0;" edge="1" parent="RJwh2fDzSjNkM2PtVlyq-130">
          <mxGeometry width="50" height="50" relative="1" as="geometry">
            <mxPoint x="421" y="210" as="sourcePoint" />
            <mxPoint x="421" y="240" as="targetPoint" />
          </mxGeometry>
        </mxCell>
        <mxCell id="RJwh2fDzSjNkM2PtVlyq-75" value="" style="endArrow=none;html=1;rounded=0;entryX=0.5;entryY=0;entryDx=0;entryDy=0;" edge="1" parent="RJwh2fDzSjNkM2PtVlyq-130">
          <mxGeometry width="50" height="50" relative="1" as="geometry">
            <mxPoint x="451" y="210" as="sourcePoint" />
            <mxPoint x="451" y="240" as="targetPoint" />
          </mxGeometry>
        </mxCell>
        <mxCell id="RJwh2fDzSjNkM2PtVlyq-76" value="" style="endArrow=none;html=1;rounded=0;entryX=0.5;entryY=0;entryDx=0;entryDy=0;" edge="1" parent="RJwh2fDzSjNkM2PtVlyq-130">
          <mxGeometry width="50" height="50" relative="1" as="geometry">
            <mxPoint x="481" y="210" as="sourcePoint" />
            <mxPoint x="481" y="240" as="targetPoint" />
          </mxGeometry>
        </mxCell>
        <mxCell id="RJwh2fDzSjNkM2PtVlyq-77" value="" style="endArrow=none;html=1;rounded=0;entryX=0.5;entryY=0;entryDx=0;entryDy=0;" edge="1" parent="RJwh2fDzSjNkM2PtVlyq-130">
          <mxGeometry width="50" height="50" relative="1" as="geometry">
            <mxPoint x="510" y="211" as="sourcePoint" />
            <mxPoint x="510" y="241" as="targetPoint" />
          </mxGeometry>
        </mxCell>
        <mxCell id="RJwh2fDzSjNkM2PtVlyq-78" value="" style="endArrow=none;html=1;rounded=0;entryX=0.5;entryY=0;entryDx=0;entryDy=0;" edge="1" parent="RJwh2fDzSjNkM2PtVlyq-130">
          <mxGeometry width="50" height="50" relative="1" as="geometry">
            <mxPoint x="540" y="210" as="sourcePoint" />
            <mxPoint x="540" y="240" as="targetPoint" />
          </mxGeometry>
        </mxCell>
        <mxCell id="RJwh2fDzSjNkM2PtVlyq-79" value="" style="endArrow=none;html=1;rounded=0;entryX=0.5;entryY=0;entryDx=0;entryDy=0;" edge="1" parent="RJwh2fDzSjNkM2PtVlyq-130">
          <mxGeometry width="50" height="50" relative="1" as="geometry">
            <mxPoint x="589" y="209" as="sourcePoint" />
            <mxPoint x="589" y="239" as="targetPoint" />
          </mxGeometry>
        </mxCell>
        <mxCell id="RJwh2fDzSjNkM2PtVlyq-80" value="" style="endArrow=none;html=1;rounded=0;entryX=0.5;entryY=0;entryDx=0;entryDy=0;" edge="1" parent="RJwh2fDzSjNkM2PtVlyq-130">
          <mxGeometry width="50" height="50" relative="1" as="geometry">
            <mxPoint x="621" y="211" as="sourcePoint" />
            <mxPoint x="621" y="241" as="targetPoint" />
          </mxGeometry>
        </mxCell>
        <mxCell id="RJwh2fDzSjNkM2PtVlyq-81" value="" style="endArrow=none;html=1;rounded=0;entryX=0.5;entryY=0;entryDx=0;entryDy=0;" edge="1" parent="RJwh2fDzSjNkM2PtVlyq-130">
          <mxGeometry width="50" height="50" relative="1" as="geometry">
            <mxPoint x="651" y="211" as="sourcePoint" />
            <mxPoint x="651" y="241" as="targetPoint" />
          </mxGeometry>
        </mxCell>
        <mxCell id="RJwh2fDzSjNkM2PtVlyq-82" value="" style="endArrow=none;html=1;rounded=0;entryX=0.5;entryY=0;entryDx=0;entryDy=0;" edge="1" parent="RJwh2fDzSjNkM2PtVlyq-130">
          <mxGeometry width="50" height="50" relative="1" as="geometry">
            <mxPoint x="681" y="210" as="sourcePoint" />
            <mxPoint x="681" y="240" as="targetPoint" />
          </mxGeometry>
        </mxCell>
        <mxCell id="RJwh2fDzSjNkM2PtVlyq-83" value="" style="endArrow=none;html=1;rounded=0;entryX=0.5;entryY=0;entryDx=0;entryDy=0;" edge="1" parent="RJwh2fDzSjNkM2PtVlyq-130">
          <mxGeometry width="50" height="50" relative="1" as="geometry">
            <mxPoint x="710" y="211" as="sourcePoint" />
            <mxPoint x="710" y="241" as="targetPoint" />
          </mxGeometry>
        </mxCell>
        <mxCell id="RJwh2fDzSjNkM2PtVlyq-84" value="" style="endArrow=none;html=1;rounded=0;entryX=0.5;entryY=0;entryDx=0;entryDy=0;" edge="1" parent="RJwh2fDzSjNkM2PtVlyq-130">
          <mxGeometry width="50" height="50" relative="1" as="geometry">
            <mxPoint x="734" y="209" as="sourcePoint" />
            <mxPoint x="734" y="239" as="targetPoint" />
          </mxGeometry>
        </mxCell>
        <mxCell id="RJwh2fDzSjNkM2PtVlyq-85" value="" style="endArrow=none;html=1;rounded=0;" edge="1" parent="RJwh2fDzSjNkM2PtVlyq-130">
          <mxGeometry width="50" height="50" relative="1" as="geometry">
            <mxPoint x="380.5" y="60" as="sourcePoint" />
            <mxPoint x="381" y="80" as="targetPoint" />
          </mxGeometry>
        </mxCell>
        <mxCell id="RJwh2fDzSjNkM2PtVlyq-87" value="" style="endArrow=none;html=1;rounded=0;" edge="1" parent="RJwh2fDzSjNkM2PtVlyq-130">
          <mxGeometry width="50" height="50" relative="1" as="geometry">
            <mxPoint x="129" y="179" as="sourcePoint" />
            <mxPoint x="129" y="210" as="targetPoint" />
          </mxGeometry>
        </mxCell>
        <mxCell id="RJwh2fDzSjNkM2PtVlyq-88" value="" style="endArrow=none;html=1;rounded=0;" edge="1" parent="RJwh2fDzSjNkM2PtVlyq-130">
          <mxGeometry width="50" height="50" relative="1" as="geometry">
            <mxPoint x="315" y="180" as="sourcePoint" />
            <mxPoint x="315" y="211" as="targetPoint" />
          </mxGeometry>
        </mxCell>
        <mxCell id="RJwh2fDzSjNkM2PtVlyq-89" value="" style="endArrow=none;html=1;rounded=0;" edge="1" parent="RJwh2fDzSjNkM2PtVlyq-130">
          <mxGeometry width="50" height="50" relative="1" as="geometry">
            <mxPoint x="471" y="181" as="sourcePoint" />
            <mxPoint x="471" y="212" as="targetPoint" />
          </mxGeometry>
        </mxCell>
        <mxCell id="RJwh2fDzSjNkM2PtVlyq-90" value="" style="endArrow=none;html=1;rounded=0;" edge="1" parent="RJwh2fDzSjNkM2PtVlyq-130">
          <mxGeometry width="50" height="50" relative="1" as="geometry">
            <mxPoint x="642" y="181" as="sourcePoint" />
            <mxPoint x="642" y="212" as="targetPoint" />
          </mxGeometry>
        </mxCell>
        <mxCell id="RJwh2fDzSjNkM2PtVlyq-91" value="" style="endArrow=none;html=1;rounded=0;" edge="1" parent="RJwh2fDzSjNkM2PtVlyq-130">
          <mxGeometry width="50" height="50" relative="1" as="geometry">
            <mxPoint x="10" y="380" as="sourcePoint" />
            <mxPoint x="70" y="380" as="targetPoint" />
          </mxGeometry>
        </mxCell>
        <mxCell id="RJwh2fDzSjNkM2PtVlyq-92" value="" style="endArrow=none;html=1;rounded=0;" edge="1" parent="RJwh2fDzSjNkM2PtVlyq-130">
          <mxGeometry width="50" height="50" relative="1" as="geometry">
            <mxPoint x="169" y="380" as="sourcePoint" />
            <mxPoint x="289" y="380" as="targetPoint" />
          </mxGeometry>
        </mxCell>
        <mxCell id="RJwh2fDzSjNkM2PtVlyq-93" value="" style="endArrow=none;html=1;rounded=0;" edge="1" parent="RJwh2fDzSjNkM2PtVlyq-130">
          <mxGeometry width="50" height="50" relative="1" as="geometry">
            <mxPoint x="678" y="380" as="sourcePoint" />
            <mxPoint x="781" y="380" as="targetPoint" />
          </mxGeometry>
        </mxCell>
        <mxCell id="RJwh2fDzSjNkM2PtVlyq-94" value="" style="endArrow=none;html=1;rounded=0;" edge="1" parent="RJwh2fDzSjNkM2PtVlyq-130">
          <mxGeometry width="50" height="50" relative="1" as="geometry">
            <mxPoint x="481" y="380" as="sourcePoint" />
            <mxPoint x="641" y="380" as="targetPoint" />
          </mxGeometry>
        </mxCell>
        <mxCell id="RJwh2fDzSjNkM2PtVlyq-95" value="" style="endArrow=none;html=1;rounded=0;entryX=0.5;entryY=0;entryDx=0;entryDy=0;" edge="1" parent="RJwh2fDzSjNkM2PtVlyq-130" target="RJwh2fDzSjNkM2PtVlyq-35">
          <mxGeometry width="50" height="50" relative="1" as="geometry">
            <mxPoint x="10" y="380" as="sourcePoint" />
            <mxPoint x="60" y="330" as="targetPoint" />
          </mxGeometry>
        </mxCell>
        <mxCell id="RJwh2fDzSjNkM2PtVlyq-96" value="" style="endArrow=none;html=1;rounded=0;entryX=0.5;entryY=0;entryDx=0;entryDy=0;" edge="1" parent="RJwh2fDzSjNkM2PtVlyq-130">
          <mxGeometry width="50" height="50" relative="1" as="geometry">
            <mxPoint x="39" y="381" as="sourcePoint" />
            <mxPoint x="39" y="401" as="targetPoint" />
          </mxGeometry>
        </mxCell>
        <mxCell id="RJwh2fDzSjNkM2PtVlyq-97" value="" style="endArrow=none;html=1;rounded=0;entryX=0.5;entryY=0;entryDx=0;entryDy=0;" edge="1" parent="RJwh2fDzSjNkM2PtVlyq-130">
          <mxGeometry width="50" height="50" relative="1" as="geometry">
            <mxPoint x="70" y="381" as="sourcePoint" />
            <mxPoint x="70" y="401" as="targetPoint" />
          </mxGeometry>
        </mxCell>
        <mxCell id="RJwh2fDzSjNkM2PtVlyq-98" value="" style="endArrow=none;html=1;rounded=0;entryX=0.5;entryY=0;entryDx=0;entryDy=0;" edge="1" parent="RJwh2fDzSjNkM2PtVlyq-130">
          <mxGeometry width="50" height="50" relative="1" as="geometry">
            <mxPoint x="170" y="381" as="sourcePoint" />
            <mxPoint x="170" y="401" as="targetPoint" />
          </mxGeometry>
        </mxCell>
        <mxCell id="RJwh2fDzSjNkM2PtVlyq-99" value="" style="endArrow=none;html=1;rounded=0;entryX=0.5;entryY=0;entryDx=0;entryDy=0;" edge="1" parent="RJwh2fDzSjNkM2PtVlyq-130">
          <mxGeometry width="50" height="50" relative="1" as="geometry">
            <mxPoint x="198" y="381" as="sourcePoint" />
            <mxPoint x="198" y="401" as="targetPoint" />
          </mxGeometry>
        </mxCell>
        <mxCell id="RJwh2fDzSjNkM2PtVlyq-100" value="" style="endArrow=none;html=1;rounded=0;entryX=0.5;entryY=0;entryDx=0;entryDy=0;" edge="1" parent="RJwh2fDzSjNkM2PtVlyq-130">
          <mxGeometry width="50" height="50" relative="1" as="geometry">
            <mxPoint x="230" y="381" as="sourcePoint" />
            <mxPoint x="230" y="401" as="targetPoint" />
          </mxGeometry>
        </mxCell>
        <mxCell id="RJwh2fDzSjNkM2PtVlyq-101" value="" style="endArrow=none;html=1;rounded=0;entryX=0.5;entryY=0;entryDx=0;entryDy=0;" edge="1" parent="RJwh2fDzSjNkM2PtVlyq-130">
          <mxGeometry width="50" height="50" relative="1" as="geometry">
            <mxPoint x="260" y="381" as="sourcePoint" />
            <mxPoint x="260" y="401" as="targetPoint" />
          </mxGeometry>
        </mxCell>
        <mxCell id="RJwh2fDzSjNkM2PtVlyq-102" value="" style="endArrow=none;html=1;rounded=0;entryX=0.5;entryY=0;entryDx=0;entryDy=0;" edge="1" parent="RJwh2fDzSjNkM2PtVlyq-130">
          <mxGeometry width="50" height="50" relative="1" as="geometry">
            <mxPoint x="288" y="381" as="sourcePoint" />
            <mxPoint x="288" y="401" as="targetPoint" />
          </mxGeometry>
        </mxCell>
        <mxCell id="RJwh2fDzSjNkM2PtVlyq-103" value="" style="endArrow=none;html=1;rounded=0;entryX=0.5;entryY=0;entryDx=0;entryDy=0;" edge="1" parent="RJwh2fDzSjNkM2PtVlyq-130">
          <mxGeometry width="50" height="50" relative="1" as="geometry">
            <mxPoint x="552" y="381" as="sourcePoint" />
            <mxPoint x="552" y="401" as="targetPoint" />
          </mxGeometry>
        </mxCell>
        <mxCell id="RJwh2fDzSjNkM2PtVlyq-104" value="" style="endArrow=none;html=1;rounded=0;entryX=0.5;entryY=0;entryDx=0;entryDy=0;" edge="1" parent="RJwh2fDzSjNkM2PtVlyq-130">
          <mxGeometry width="50" height="50" relative="1" as="geometry">
            <mxPoint x="580" y="380" as="sourcePoint" />
            <mxPoint x="580" y="400" as="targetPoint" />
          </mxGeometry>
        </mxCell>
        <mxCell id="RJwh2fDzSjNkM2PtVlyq-105" value="" style="endArrow=none;html=1;rounded=0;entryX=0.5;entryY=0;entryDx=0;entryDy=0;" edge="1" parent="RJwh2fDzSjNkM2PtVlyq-130">
          <mxGeometry width="50" height="50" relative="1" as="geometry">
            <mxPoint x="611" y="380" as="sourcePoint" />
            <mxPoint x="611" y="400" as="targetPoint" />
          </mxGeometry>
        </mxCell>
        <mxCell id="RJwh2fDzSjNkM2PtVlyq-106" value="" style="endArrow=none;html=1;rounded=0;entryX=0.5;entryY=0;entryDx=0;entryDy=0;" edge="1" parent="RJwh2fDzSjNkM2PtVlyq-130">
          <mxGeometry width="50" height="50" relative="1" as="geometry">
            <mxPoint x="641" y="380" as="sourcePoint" />
            <mxPoint x="641" y="400" as="targetPoint" />
          </mxGeometry>
        </mxCell>
        <mxCell id="RJwh2fDzSjNkM2PtVlyq-107" value="" style="endArrow=none;html=1;rounded=0;entryX=0.5;entryY=0;entryDx=0;entryDy=0;" edge="1" parent="RJwh2fDzSjNkM2PtVlyq-130">
          <mxGeometry width="50" height="50" relative="1" as="geometry">
            <mxPoint x="680" y="380" as="sourcePoint" />
            <mxPoint x="680" y="400" as="targetPoint" />
          </mxGeometry>
        </mxCell>
        <mxCell id="RJwh2fDzSjNkM2PtVlyq-108" value="" style="endArrow=none;html=1;rounded=0;entryX=0.5;entryY=0;entryDx=0;entryDy=0;" edge="1" parent="RJwh2fDzSjNkM2PtVlyq-130">
          <mxGeometry width="50" height="50" relative="1" as="geometry">
            <mxPoint x="724" y="382" as="sourcePoint" />
            <mxPoint x="724" y="402" as="targetPoint" />
          </mxGeometry>
        </mxCell>
        <mxCell id="RJwh2fDzSjNkM2PtVlyq-109" value="" style="endArrow=none;html=1;rounded=0;entryX=0.5;entryY=0;entryDx=0;entryDy=0;" edge="1" parent="RJwh2fDzSjNkM2PtVlyq-130">
          <mxGeometry width="50" height="50" relative="1" as="geometry">
            <mxPoint x="754" y="380" as="sourcePoint" />
            <mxPoint x="754" y="400" as="targetPoint" />
          </mxGeometry>
        </mxCell>
        <mxCell id="RJwh2fDzSjNkM2PtVlyq-110" value="" style="endArrow=none;html=1;rounded=0;entryX=0.5;entryY=0;entryDx=0;entryDy=0;" edge="1" parent="RJwh2fDzSjNkM2PtVlyq-130">
          <mxGeometry width="50" height="50" relative="1" as="geometry">
            <mxPoint x="781" y="381" as="sourcePoint" />
            <mxPoint x="781" y="401" as="targetPoint" />
          </mxGeometry>
        </mxCell>
        <mxCell id="RJwh2fDzSjNkM2PtVlyq-111" value="" style="endArrow=none;html=1;rounded=0;" edge="1" parent="RJwh2fDzSjNkM2PtVlyq-130">
          <mxGeometry width="50" height="50" relative="1" as="geometry">
            <mxPoint x="739" y="342" as="sourcePoint" />
            <mxPoint x="739" y="380" as="targetPoint" />
          </mxGeometry>
        </mxCell>
        <mxCell id="RJwh2fDzSjNkM2PtVlyq-112" value="" style="endArrow=none;html=1;rounded=0;" edge="1" parent="RJwh2fDzSjNkM2PtVlyq-130">
          <mxGeometry width="50" height="50" relative="1" as="geometry">
            <mxPoint x="593" y="349" as="sourcePoint" />
            <mxPoint x="593" y="380" as="targetPoint" />
          </mxGeometry>
        </mxCell>
        <mxCell id="RJwh2fDzSjNkM2PtVlyq-113" value="" style="endArrow=none;html=1;rounded=0;" edge="1" parent="RJwh2fDzSjNkM2PtVlyq-130">
          <mxGeometry width="50" height="50" relative="1" as="geometry">
            <mxPoint x="260" y="359" as="sourcePoint" />
            <mxPoint x="260" y="390" as="targetPoint" />
          </mxGeometry>
        </mxCell>
        <mxCell id="RJwh2fDzSjNkM2PtVlyq-114" value="" style="endArrow=none;html=1;rounded=0;" edge="1" parent="RJwh2fDzSjNkM2PtVlyq-130">
          <mxGeometry width="50" height="50" relative="1" as="geometry">
            <mxPoint x="39" y="362" as="sourcePoint" />
            <mxPoint x="39" y="393" as="targetPoint" />
          </mxGeometry>
        </mxCell>
        <mxCell id="RJwh2fDzSjNkM2PtVlyq-115" value="&lt;p class=&quot;MsoNormal&quot;&gt;&lt;span style=&quot;mso-spacerun:&#39;yes&#39;;font-family:宋体;mso-bidi-font-family:&#39;Times New Roman&#39;;&lt;br/&gt;font-size:10.5000pt;mso-font-kerning:1.0000pt;&quot;&gt;RTGS清算时间&lt;/span&gt;&lt;/p&gt;" style="rounded=0;whiteSpace=wrap;html=1;" vertex="1" parent="RJwh2fDzSjNkM2PtVlyq-130">
          <mxGeometry x="501" y="400" width="30" height="100" as="geometry" />
        </mxCell>
        <mxCell id="RJwh2fDzSjNkM2PtVlyq-116" value="&lt;p class=&quot;MsoNormal&quot;&gt;&lt;span style=&quot;mso-spacerun:&#39;yes&#39;;font-family:宋体;mso-bidi-font-family:&#39;Times New Roman&#39;;&lt;br/&gt;font-size:10.5000pt;mso-font-kerning:1.0000pt;&quot;&gt;错误编码规则配置&lt;/span&gt;&lt;/p&gt;" style="rounded=0;whiteSpace=wrap;html=1;" vertex="1" parent="RJwh2fDzSjNkM2PtVlyq-130">
          <mxGeometry x="471" y="400" width="20" height="130" as="geometry" />
        </mxCell>
        <mxCell id="RJwh2fDzSjNkM2PtVlyq-117" value="" style="endArrow=none;html=1;rounded=0;entryX=0.5;entryY=0;entryDx=0;entryDy=0;" edge="1" parent="RJwh2fDzSjNkM2PtVlyq-130">
          <mxGeometry width="50" height="50" relative="1" as="geometry">
            <mxPoint x="517" y="381" as="sourcePoint" />
            <mxPoint x="517" y="401" as="targetPoint" />
          </mxGeometry>
        </mxCell>
        <mxCell id="RJwh2fDzSjNkM2PtVlyq-118" value="" style="endArrow=none;html=1;rounded=0;entryX=0.5;entryY=0;entryDx=0;entryDy=0;" edge="1" parent="RJwh2fDzSjNkM2PtVlyq-130">
          <mxGeometry width="50" height="50" relative="1" as="geometry">
            <mxPoint x="482" y="382" as="sourcePoint" />
            <mxPoint x="482" y="402" as="targetPoint" />
          </mxGeometry>
        </mxCell>
        <mxCell id="RJwh2fDzSjNkM2PtVlyq-119" value="&lt;p class=&quot;MsoNormal&quot;&gt;&lt;span style=&quot;mso-spacerun:&#39;yes&#39;;font-family:宋体;mso-ascii-font-family:Calibri;&lt;br/&gt;mso-hansi-font-family:Calibri;mso-bidi-font-family:&#39;Times New Roman&#39;;font-size:10.5000pt;&lt;br/&gt;mso-font-kerning:1.0000pt;&quot;&gt;个人工作台&lt;/span&gt;&lt;/p&gt;" style="rounded=0;whiteSpace=wrap;html=1;" vertex="1" parent="RJwh2fDzSjNkM2PtVlyq-130">
          <mxGeometry x="351" y="400" width="20" height="120" as="geometry" />
        </mxCell>
        <mxCell id="RJwh2fDzSjNkM2PtVlyq-120" value="&lt;p class=&quot;MsoNormal&quot;&gt;&lt;span style=&quot;mso-spacerun:&#39;yes&#39;;font-family:宋体;mso-ascii-font-family:Calibri;&lt;br/&gt;mso-hansi-font-family:Calibri;mso-bidi-font-family:&#39;Times New Roman&#39;;font-size:10.5000pt;&lt;br/&gt;mso-font-kerning:1.0000pt;&quot;&gt;已处理任务&lt;/span&gt;&lt;/p&gt;" style="rounded=0;whiteSpace=wrap;html=1;" vertex="1" parent="RJwh2fDzSjNkM2PtVlyq-130">
          <mxGeometry x="375" y="400" width="20" height="120" as="geometry" />
        </mxCell>
        <mxCell id="RJwh2fDzSjNkM2PtVlyq-122" value="&lt;p class=&quot;MsoNormal&quot;&gt;&lt;span style=&quot;mso-spacerun:&#39;yes&#39;;font-family:宋体;mso-ascii-font-family:Calibri;&lt;br/&gt;mso-hansi-font-family:Calibri;mso-bidi-font-family:&#39;Times New Roman&#39;;font-size:10.5000pt;&lt;br/&gt;mso-font-kerning:1.0000pt;&quot;&gt;已完成任务&lt;/span&gt;&lt;/p&gt;" style="rounded=0;whiteSpace=wrap;html=1;" vertex="1" parent="RJwh2fDzSjNkM2PtVlyq-130">
          <mxGeometry x="401" y="400" width="20" height="120" as="geometry" />
        </mxCell>
        <mxCell id="RJwh2fDzSjNkM2PtVlyq-123" value="&lt;p class=&quot;MsoNormal&quot;&gt;&lt;span style=&quot;mso-spacerun:&#39;yes&#39;;font-family:宋体;mso-ascii-font-family:Calibri;&lt;br/&gt;mso-hansi-font-family:Calibri;mso-bidi-font-family:&#39;Times New Roman&#39;;font-size:10.5000pt;&lt;br/&gt;mso-font-kerning:1.0000pt;&quot;&gt;被退回任务&lt;/span&gt;&lt;/p&gt;" style="rounded=0;whiteSpace=wrap;html=1;" vertex="1" parent="RJwh2fDzSjNkM2PtVlyq-130">
          <mxGeometry x="426" y="400" width="20" height="120" as="geometry" />
        </mxCell>
        <mxCell id="RJwh2fDzSjNkM2PtVlyq-124" value="" style="endArrow=none;html=1;rounded=0;" edge="1" parent="RJwh2fDzSjNkM2PtVlyq-130">
          <mxGeometry width="50" height="50" relative="1" as="geometry">
            <mxPoint x="357" y="380" as="sourcePoint" />
            <mxPoint x="441" y="380" as="targetPoint" />
          </mxGeometry>
        </mxCell>
        <mxCell id="RJwh2fDzSjNkM2PtVlyq-125" value="" style="endArrow=none;html=1;rounded=0;" edge="1" parent="RJwh2fDzSjNkM2PtVlyq-130">
          <mxGeometry width="50" height="50" relative="1" as="geometry">
            <mxPoint x="420" y="361" as="sourcePoint" />
            <mxPoint x="420" y="380" as="targetPoint" />
          </mxGeometry>
        </mxCell>
        <mxCell id="RJwh2fDzSjNkM2PtVlyq-126" value="" style="endArrow=none;html=1;rounded=0;" edge="1" parent="RJwh2fDzSjNkM2PtVlyq-130">
          <mxGeometry width="50" height="50" relative="1" as="geometry">
            <mxPoint x="438" y="381" as="sourcePoint" />
            <mxPoint x="438" y="400" as="targetPoint" />
          </mxGeometry>
        </mxCell>
        <mxCell id="RJwh2fDzSjNkM2PtVlyq-127" value="" style="endArrow=none;html=1;rounded=0;" edge="1" parent="RJwh2fDzSjNkM2PtVlyq-130">
          <mxGeometry width="50" height="50" relative="1" as="geometry">
            <mxPoint x="413" y="381" as="sourcePoint" />
            <mxPoint x="413" y="400" as="targetPoint" />
          </mxGeometry>
        </mxCell>
        <mxCell id="RJwh2fDzSjNkM2PtVlyq-128" value="" style="endArrow=none;html=1;rounded=0;" edge="1" parent="RJwh2fDzSjNkM2PtVlyq-130">
          <mxGeometry width="50" height="50" relative="1" as="geometry">
            <mxPoint x="384" y="381" as="sourcePoint" />
            <mxPoint x="384" y="400" as="targetPoint" />
          </mxGeometry>
        </mxCell>
        <mxCell id="RJwh2fDzSjNkM2PtVlyq-129" value="" style="endArrow=none;html=1;rounded=0;" edge="1" parent="RJwh2fDzSjNkM2PtVlyq-130">
          <mxGeometry width="50" height="50" relative="1" as="geometry">
            <mxPoint x="358" y="379" as="sourcePoint" />
            <mxPoint x="358" y="398" as="targetPoint" />
          </mxGeometry>
        </mxCell>
      </root>
    </mxGraphModel>
  </diagram>
</mxfile>
