<mxfile host="app.diagrams.net" modified="2024-03-20T07:50:31.714Z" agent="Mozilla/5.0 (Windows NT 10.0; Win64; x64) AppleWebKit/537.36 (KHTML, like Gecko) Chrome/122.0.0.0 Safari/537.36 Edg/122.0.0.0" etag="daE6kH39KoLOezs2yhZV" version="24.0.7" type="gitlab">
  <diagram name="第 1 页" id="PoZ5BKiivf8wI5Iw9cS-">
    <mxGraphModel dx="2601" dy="813" grid="1" gridSize="10" guides="1" tooltips="1" connect="1" arrows="1" fold="1" page="1" pageScale="1" pageWidth="827" pageHeight="1169" math="0" shadow="0">
      <root>
        <mxCell id="0" />
        <mxCell id="1" parent="0" />
        <mxCell id="iD7Lbrp5dYnuIZTjbnB8-6" value="" style="rounded=0;whiteSpace=wrap;html=1;" vertex="1" parent="1">
          <mxGeometry x="44" y="1010" width="606" height="140" as="geometry" />
        </mxCell>
        <mxCell id="V_3Z-BpvRZIAIx4ZJQWr-69" value="" style="group" parent="1" vertex="1" connectable="0">
          <mxGeometry x="-160" y="70" width="1210" height="920" as="geometry" />
        </mxCell>
        <mxCell id="V_3Z-BpvRZIAIx4ZJQWr-22" value="" style="rounded=0;whiteSpace=wrap;html=1;" parent="V_3Z-BpvRZIAIx4ZJQWr-69" vertex="1">
          <mxGeometry x="210" y="-10" width="600" height="510" as="geometry" />
        </mxCell>
        <mxCell id="V_3Z-BpvRZIAIx4ZJQWr-20" value="" style="rounded=0;whiteSpace=wrap;html=1;" parent="V_3Z-BpvRZIAIx4ZJQWr-69" vertex="1">
          <mxGeometry x="206" y="540" width="604" height="370" as="geometry" />
        </mxCell>
        <mxCell id="V_3Z-BpvRZIAIx4ZJQWr-1" value="tf-micro-auth" style="shape=cube;whiteSpace=wrap;html=1;boundedLbl=1;backgroundOutline=1;darkOpacity=0.05;darkOpacity2=0.1;" parent="V_3Z-BpvRZIAIx4ZJQWr-69" vertex="1">
          <mxGeometry x="280" y="270" width="120" height="80" as="geometry" />
        </mxCell>
        <mxCell id="V_3Z-BpvRZIAIx4ZJQWr-67" style="edgeStyle=orthogonalEdgeStyle;rounded=0;orthogonalLoop=1;jettySize=auto;html=1;exitX=1.009;exitY=0.397;exitDx=0;exitDy=0;exitPerimeter=0;entryX=0.999;entryY=0.373;entryDx=0;entryDy=0;entryPerimeter=0;" parent="V_3Z-BpvRZIAIx4ZJQWr-69" edge="1" target="V_3Z-BpvRZIAIx4ZJQWr-20">
          <mxGeometry relative="1" as="geometry">
            <mxPoint x="1076.75" y="440" as="targetPoint" />
            <mxPoint x="815.346" y="91.30999999999995" as="sourcePoint" />
            <Array as="points">
              <mxPoint x="910" y="91" />
              <mxPoint x="910" y="678" />
            </Array>
          </mxGeometry>
        </mxCell>
        <mxCell id="V_3Z-BpvRZIAIx4ZJQWr-2" value="tf-micro-autotask" style="shape=cube;whiteSpace=wrap;html=1;boundedLbl=1;backgroundOutline=1;darkOpacity=0.05;darkOpacity2=0.1;" parent="V_3Z-BpvRZIAIx4ZJQWr-69" vertex="1">
          <mxGeometry x="456" y="140" width="120" height="80" as="geometry" />
        </mxCell>
        <mxCell id="iD7Lbrp5dYnuIZTjbnB8-4" style="edgeStyle=orthogonalEdgeStyle;rounded=0;orthogonalLoop=1;jettySize=auto;html=1;entryX=0;entryY=0.75;entryDx=0;entryDy=0;" edge="1" parent="V_3Z-BpvRZIAIx4ZJQWr-69" source="V_3Z-BpvRZIAIx4ZJQWr-3" target="V_3Z-BpvRZIAIx4ZJQWr-20">
          <mxGeometry relative="1" as="geometry" />
        </mxCell>
        <mxCell id="V_3Z-BpvRZIAIx4ZJQWr-3" value="tf-micro-gateway" style="shape=cube;whiteSpace=wrap;html=1;boundedLbl=1;backgroundOutline=1;darkOpacity=0.05;darkOpacity2=0.1;" parent="V_3Z-BpvRZIAIx4ZJQWr-69" vertex="1">
          <mxGeometry y="230" width="120" height="80" as="geometry" />
        </mxCell>
        <mxCell id="V_3Z-BpvRZIAIx4ZJQWr-4" value="tf-micro-params" style="shape=cube;whiteSpace=wrap;html=1;boundedLbl=1;backgroundOutline=1;darkOpacity=0.05;darkOpacity2=0.1;" parent="V_3Z-BpvRZIAIx4ZJQWr-69" vertex="1">
          <mxGeometry x="410" y="400" width="120" height="80" as="geometry" />
        </mxCell>
        <mxCell id="V_3Z-BpvRZIAIx4ZJQWr-27" style="edgeStyle=orthogonalEdgeStyle;rounded=0;orthogonalLoop=1;jettySize=auto;html=1;" parent="V_3Z-BpvRZIAIx4ZJQWr-69" source="V_3Z-BpvRZIAIx4ZJQWr-5" target="V_3Z-BpvRZIAIx4ZJQWr-1" edge="1">
          <mxGeometry relative="1" as="geometry" />
        </mxCell>
        <mxCell id="V_3Z-BpvRZIAIx4ZJQWr-5" value="tf-micro-task" style="shape=cube;whiteSpace=wrap;html=1;boundedLbl=1;backgroundOutline=1;darkOpacity=0.05;darkOpacity2=0.1;" parent="V_3Z-BpvRZIAIx4ZJQWr-69" vertex="1">
          <mxGeometry x="246" y="100" width="120" height="80" as="geometry" />
        </mxCell>
        <mxCell id="V_3Z-BpvRZIAIx4ZJQWr-28" style="edgeStyle=orthogonalEdgeStyle;rounded=0;orthogonalLoop=1;jettySize=auto;html=1;" parent="V_3Z-BpvRZIAIx4ZJQWr-69" source="V_3Z-BpvRZIAIx4ZJQWr-1" target="V_3Z-BpvRZIAIx4ZJQWr-4" edge="1">
          <mxGeometry relative="1" as="geometry" />
        </mxCell>
        <mxCell id="V_3Z-BpvRZIAIx4ZJQWr-6" value="tf-micro-clpt-business" style="shape=cube;whiteSpace=wrap;html=1;boundedLbl=1;backgroundOutline=1;darkOpacity=0.05;darkOpacity2=0.1;" parent="V_3Z-BpvRZIAIx4ZJQWr-69" vertex="1">
          <mxGeometry x="576" y="570" width="120" height="80" as="geometry" />
        </mxCell>
        <mxCell id="V_3Z-BpvRZIAIx4ZJQWr-57" style="edgeStyle=orthogonalEdgeStyle;rounded=0;orthogonalLoop=1;jettySize=auto;html=1;" parent="V_3Z-BpvRZIAIx4ZJQWr-69" source="V_3Z-BpvRZIAIx4ZJQWr-2" target="V_3Z-BpvRZIAIx4ZJQWr-5" edge="1">
          <mxGeometry relative="1" as="geometry" />
        </mxCell>
        <mxCell id="V_3Z-BpvRZIAIx4ZJQWr-7" value="tf-micro-clpt-paymentgateway" style="shape=cube;whiteSpace=wrap;html=1;boundedLbl=1;backgroundOutline=1;darkOpacity=0.05;darkOpacity2=0.1;" parent="V_3Z-BpvRZIAIx4ZJQWr-69" vertex="1">
          <mxGeometry x="256" y="700" width="120" height="80" as="geometry" />
        </mxCell>
        <mxCell id="V_3Z-BpvRZIAIx4ZJQWr-8" value="tf-micro-clpt-assign" style="shape=cube;whiteSpace=wrap;html=1;boundedLbl=1;backgroundOutline=1;darkOpacity=0.05;darkOpacity2=0.1;" parent="V_3Z-BpvRZIAIx4ZJQWr-69" vertex="1">
          <mxGeometry x="256" y="570" width="120" height="80" as="geometry" />
        </mxCell>
        <mxCell id="V_3Z-BpvRZIAIx4ZJQWr-10" value="tf-micro-remote-message" style="shape=cube;whiteSpace=wrap;html=1;boundedLbl=1;backgroundOutline=1;darkOpacity=0.05;darkOpacity2=0.1;" parent="V_3Z-BpvRZIAIx4ZJQWr-69" vertex="1">
          <mxGeometry x="516" y="290" width="120" height="80" as="geometry" />
        </mxCell>
        <mxCell id="V_3Z-BpvRZIAIx4ZJQWr-35" style="edgeStyle=orthogonalEdgeStyle;rounded=0;orthogonalLoop=1;jettySize=auto;html=1;" parent="V_3Z-BpvRZIAIx4ZJQWr-69" source="V_3Z-BpvRZIAIx4ZJQWr-6" target="V_3Z-BpvRZIAIx4ZJQWr-10" edge="1">
          <mxGeometry relative="1" as="geometry" />
        </mxCell>
        <mxCell id="V_3Z-BpvRZIAIx4ZJQWr-11" value="tf-micro-clpt-transport" style="shape=cube;whiteSpace=wrap;html=1;boundedLbl=1;backgroundOutline=1;darkOpacity=0.05;darkOpacity2=0.1;" parent="V_3Z-BpvRZIAIx4ZJQWr-69" vertex="1">
          <mxGeometry x="586" y="700" width="120" height="80" as="geometry" />
        </mxCell>
        <mxCell id="V_3Z-BpvRZIAIx4ZJQWr-12" value="tf-micro-remote-account" style="shape=cube;whiteSpace=wrap;html=1;boundedLbl=1;backgroundOutline=1;darkOpacity=0.05;darkOpacity2=0.1;" parent="V_3Z-BpvRZIAIx4ZJQWr-69" vertex="1">
          <mxGeometry x="660" y="297" width="120" height="80" as="geometry" />
        </mxCell>
        <mxCell id="V_3Z-BpvRZIAIx4ZJQWr-13" value="tf-micro-clpt-clear" style="shape=cube;whiteSpace=wrap;html=1;boundedLbl=1;backgroundOutline=1;darkOpacity=0.05;darkOpacity2=0.1;" parent="V_3Z-BpvRZIAIx4ZJQWr-69" vertex="1">
          <mxGeometry x="596" y="800" width="120" height="80" as="geometry" />
        </mxCell>
        <mxCell id="V_3Z-BpvRZIAIx4ZJQWr-14" value="tf-micro-clpt-pre" style="shape=cube;whiteSpace=wrap;html=1;boundedLbl=1;backgroundOutline=1;darkOpacity=0.05;darkOpacity2=0.1;" parent="V_3Z-BpvRZIAIx4ZJQWr-69" vertex="1">
          <mxGeometry x="256" y="800" width="120" height="80" as="geometry" />
        </mxCell>
        <mxCell id="V_3Z-BpvRZIAIx4ZJQWr-34" style="edgeStyle=orthogonalEdgeStyle;rounded=0;orthogonalLoop=1;jettySize=auto;html=1;" parent="V_3Z-BpvRZIAIx4ZJQWr-69" source="V_3Z-BpvRZIAIx4ZJQWr-16" target="V_3Z-BpvRZIAIx4ZJQWr-4" edge="1">
          <mxGeometry relative="1" as="geometry" />
        </mxCell>
        <mxCell id="V_3Z-BpvRZIAIx4ZJQWr-16" value="tf-micro-auth-param" style="shape=cube;whiteSpace=wrap;html=1;boundedLbl=1;backgroundOutline=1;darkOpacity=0.05;darkOpacity2=0.1;" parent="V_3Z-BpvRZIAIx4ZJQWr-69" vertex="1">
          <mxGeometry x="230" y="400" width="120" height="80" as="geometry" />
        </mxCell>
        <mxCell id="V_3Z-BpvRZIAIx4ZJQWr-17" value="tf-micro-workflow" style="shape=cube;whiteSpace=wrap;html=1;boundedLbl=1;backgroundOutline=1;darkOpacity=0.05;darkOpacity2=0.1;" parent="V_3Z-BpvRZIAIx4ZJQWr-69" vertex="1">
          <mxGeometry x="446" y="20" width="120" height="80" as="geometry" />
        </mxCell>
        <mxCell id="V_3Z-BpvRZIAIx4ZJQWr-38" value="底坐基础服务组" style="text;html=1;strokeColor=none;fillColor=none;align=center;verticalAlign=middle;whiteSpace=wrap;rounded=0;" parent="V_3Z-BpvRZIAIx4ZJQWr-69" vertex="1">
          <mxGeometry x="220" width="90" height="30" as="geometry" />
        </mxCell>
        <mxCell id="V_3Z-BpvRZIAIx4ZJQWr-40" value="清算交易服务" style="text;html=1;strokeColor=none;fillColor=none;align=center;verticalAlign=middle;whiteSpace=wrap;rounded=0;" parent="V_3Z-BpvRZIAIx4ZJQWr-69" vertex="1">
          <mxGeometry x="206" y="540" width="90" height="30" as="geometry" />
        </mxCell>
        <mxCell id="V_3Z-BpvRZIAIx4ZJQWr-26" style="edgeStyle=orthogonalEdgeStyle;rounded=0;orthogonalLoop=1;jettySize=auto;html=1;" parent="V_3Z-BpvRZIAIx4ZJQWr-69" source="V_3Z-BpvRZIAIx4ZJQWr-5" target="V_3Z-BpvRZIAIx4ZJQWr-17" edge="1">
          <mxGeometry relative="1" as="geometry">
            <Array as="points">
              <mxPoint x="406" y="130" />
              <mxPoint x="406" y="60" />
            </Array>
          </mxGeometry>
        </mxCell>
        <mxCell id="V_3Z-BpvRZIAIx4ZJQWr-49" value="认证登录服务" style="text;html=1;strokeColor=none;fillColor=none;align=center;verticalAlign=middle;whiteSpace=wrap;rounded=0;" parent="V_3Z-BpvRZIAIx4ZJQWr-69" vertex="1">
          <mxGeometry x="300" y="267" width="74" height="30" as="geometry" />
        </mxCell>
        <mxCell id="V_3Z-BpvRZIAIx4ZJQWr-50" value="认证权限参数服务" style="text;html=1;strokeColor=none;fillColor=none;align=center;verticalAlign=middle;whiteSpace=wrap;rounded=0;" parent="V_3Z-BpvRZIAIx4ZJQWr-69" vertex="1">
          <mxGeometry x="240" y="393" width="104" height="35" as="geometry" />
        </mxCell>
        <mxCell id="V_3Z-BpvRZIAIx4ZJQWr-52" value="公共参数服务" style="text;html=1;strokeColor=none;fillColor=none;align=center;verticalAlign=middle;whiteSpace=wrap;rounded=0;" parent="V_3Z-BpvRZIAIx4ZJQWr-69" vertex="1">
          <mxGeometry x="418" y="393" width="104" height="35" as="geometry" />
        </mxCell>
        <mxCell id="V_3Z-BpvRZIAIx4ZJQWr-53" value="清算服务" style="text;html=1;strokeColor=none;fillColor=none;align=center;verticalAlign=middle;whiteSpace=wrap;rounded=0;" parent="V_3Z-BpvRZIAIx4ZJQWr-69" vertex="1">
          <mxGeometry x="276" y="563" width="60" height="30" as="geometry" />
        </mxCell>
        <mxCell id="V_3Z-BpvRZIAIx4ZJQWr-54" value="清算交易服务" style="text;html=1;strokeColor=none;fillColor=none;align=center;verticalAlign=middle;whiteSpace=wrap;rounded=0;" parent="V_3Z-BpvRZIAIx4ZJQWr-69" vertex="1">
          <mxGeometry x="590" y="563" width="80" height="30" as="geometry" />
        </mxCell>
        <mxCell id="V_3Z-BpvRZIAIx4ZJQWr-55" value="清算外部网关服务" style="text;html=1;strokeColor=none;fillColor=none;align=center;verticalAlign=middle;whiteSpace=wrap;rounded=0;" parent="V_3Z-BpvRZIAIx4ZJQWr-69" vertex="1">
          <mxGeometry x="270" y="693" width="100" height="28" as="geometry" />
        </mxCell>
        <mxCell id="V_3Z-BpvRZIAIx4ZJQWr-64" style="edgeStyle=orthogonalEdgeStyle;rounded=0;orthogonalLoop=1;jettySize=auto;html=1;entryX=0;entryY=0;entryDx=50;entryDy=0;entryPerimeter=0;" parent="V_3Z-BpvRZIAIx4ZJQWr-69" edge="1">
          <mxGeometry relative="1" as="geometry">
            <mxPoint x="446" y="50" as="sourcePoint" />
            <mxPoint x="296" y="90" as="targetPoint" />
          </mxGeometry>
        </mxCell>
        <mxCell id="V_3Z-BpvRZIAIx4ZJQWr-65" value="异步回调" style="text;html=1;strokeColor=none;fillColor=none;align=center;verticalAlign=middle;whiteSpace=wrap;rounded=0;" parent="V_3Z-BpvRZIAIx4ZJQWr-69" vertex="1">
          <mxGeometry x="324" y="20" width="60" height="30" as="geometry" />
        </mxCell>
        <mxCell id="V_3Z-BpvRZIAIx4ZJQWr-68" value="自动任务调各业务服务完成自动节点处理" style="text;html=1;strokeColor=none;fillColor=none;align=center;verticalAlign=middle;whiteSpace=wrap;rounded=0;" parent="V_3Z-BpvRZIAIx4ZJQWr-69" vertex="1">
          <mxGeometry x="840" y="60" width="130" height="30" as="geometry" />
        </mxCell>
        <mxCell id="V_3Z-BpvRZIAIx4ZJQWr-70" value="路由转发" style="text;html=1;strokeColor=none;fillColor=none;align=center;verticalAlign=middle;whiteSpace=wrap;rounded=0;" parent="V_3Z-BpvRZIAIx4ZJQWr-69" vertex="1">
          <mxGeometry x="130" y="280" width="60" height="30" as="geometry" />
        </mxCell>
        <mxCell id="iD7Lbrp5dYnuIZTjbnB8-1" style="edgeStyle=orthogonalEdgeStyle;rounded=0;orthogonalLoop=1;jettySize=auto;html=1;entryX=0;entryY=0;entryDx=70;entryDy=80;entryPerimeter=0;exitX=0.592;exitY=0.087;exitDx=0;exitDy=0;exitPerimeter=0;" edge="1" parent="V_3Z-BpvRZIAIx4ZJQWr-69" source="V_3Z-BpvRZIAIx4ZJQWr-54" target="V_3Z-BpvRZIAIx4ZJQWr-12">
          <mxGeometry relative="1" as="geometry" />
        </mxCell>
        <mxCell id="iD7Lbrp5dYnuIZTjbnB8-3" style="edgeStyle=orthogonalEdgeStyle;rounded=0;orthogonalLoop=1;jettySize=auto;html=1;entryX=-0.003;entryY=0.181;entryDx=0;entryDy=0;entryPerimeter=0;" edge="1" parent="V_3Z-BpvRZIAIx4ZJQWr-69" source="V_3Z-BpvRZIAIx4ZJQWr-3" target="V_3Z-BpvRZIAIx4ZJQWr-22">
          <mxGeometry relative="1" as="geometry">
            <Array as="points">
              <mxPoint x="160" y="270" />
              <mxPoint x="160" y="82" />
            </Array>
          </mxGeometry>
        </mxCell>
        <mxCell id="V_3Z-BpvRZIAIx4ZJQWr-15" value="tf-micro-clpt-param" style="shape=cube;whiteSpace=wrap;html=1;boundedLbl=1;backgroundOutline=1;darkOpacity=0.05;darkOpacity2=0.1;" parent="1" vertex="1">
          <mxGeometry x="250" y="1040" width="120" height="80" as="geometry" />
        </mxCell>
        <mxCell id="V_3Z-BpvRZIAIx4ZJQWr-32" style="edgeStyle=orthogonalEdgeStyle;rounded=0;orthogonalLoop=1;jettySize=auto;html=1;" parent="1" source="V_3Z-BpvRZIAIx4ZJQWr-14" target="V_3Z-BpvRZIAIx4ZJQWr-15" edge="1">
          <mxGeometry relative="1" as="geometry" />
        </mxCell>
        <mxCell id="V_3Z-BpvRZIAIx4ZJQWr-33" style="edgeStyle=orthogonalEdgeStyle;rounded=0;orthogonalLoop=1;jettySize=auto;html=1;" parent="1" source="V_3Z-BpvRZIAIx4ZJQWr-13" edge="1">
          <mxGeometry relative="1" as="geometry">
            <mxPoint x="350" y="1040" as="targetPoint" />
          </mxGeometry>
        </mxCell>
        <mxCell id="V_3Z-BpvRZIAIx4ZJQWr-31" style="edgeStyle=orthogonalEdgeStyle;rounded=0;orthogonalLoop=1;jettySize=auto;html=1;" parent="1" source="V_3Z-BpvRZIAIx4ZJQWr-11" target="V_3Z-BpvRZIAIx4ZJQWr-15" edge="1">
          <mxGeometry relative="1" as="geometry">
            <Array as="points">
              <mxPoint x="350" y="810" />
            </Array>
          </mxGeometry>
        </mxCell>
        <mxCell id="V_3Z-BpvRZIAIx4ZJQWr-29" style="edgeStyle=orthogonalEdgeStyle;rounded=0;orthogonalLoop=1;jettySize=auto;html=1;" parent="1" source="V_3Z-BpvRZIAIx4ZJQWr-8" target="V_3Z-BpvRZIAIx4ZJQWr-15" edge="1">
          <mxGeometry relative="1" as="geometry" />
        </mxCell>
        <mxCell id="V_3Z-BpvRZIAIx4ZJQWr-30" style="edgeStyle=orthogonalEdgeStyle;rounded=0;orthogonalLoop=1;jettySize=auto;html=1;entryX=0;entryY=0;entryDx=100;entryDy=0;entryPerimeter=0;" parent="1" source="V_3Z-BpvRZIAIx4ZJQWr-6" target="V_3Z-BpvRZIAIx4ZJQWr-15" edge="1">
          <mxGeometry relative="1" as="geometry" />
        </mxCell>
        <mxCell id="iD7Lbrp5dYnuIZTjbnB8-7" value="清算参数服务" style="text;html=1;strokeColor=none;fillColor=none;align=center;verticalAlign=middle;whiteSpace=wrap;rounded=0;" vertex="1" parent="1">
          <mxGeometry x="60" y="1020" width="90" height="30" as="geometry" />
        </mxCell>
        <mxCell id="iD7Lbrp5dYnuIZTjbnB8-8" style="edgeStyle=orthogonalEdgeStyle;rounded=0;orthogonalLoop=1;jettySize=auto;html=1;entryX=0;entryY=0.75;entryDx=0;entryDy=0;" edge="1" parent="1" source="V_3Z-BpvRZIAIx4ZJQWr-3" target="iD7Lbrp5dYnuIZTjbnB8-6">
          <mxGeometry relative="1" as="geometry" />
        </mxCell>
      </root>
    </mxGraphModel>
  </diagram>
</mxfile>
